<svg width="269" height="181" viewBox="0 0 269 181" fill="none" xmlns="http://www.w3.org/2000/svg">
<g clip-path="url(#clip0_1622_5250)">
<path fill-rule="evenodd" clip-rule="evenodd" d="M123.752 0.183022C170.985 0.794379 220.527 18.1382 235.52 62.9324C250.839 108.703 225.56 157.349 185.229 183.864C150.134 206.937 106.806 193.991 72.0602 170.395C32.2927 143.39 -11.2583 105.915 2.71013 59.919C17.1648 12.3222 74.0128 -0.460779 123.752 0.183022Z" fill="#FFF2F2"/>
<g clip-path="url(#clip1_1622_5250)">
<path d="M167.169 127.764H97.9187C92.0978 127.764 87.3623 123.029 87.3623 117.208V47.9582C87.3623 42.1374 92.0978 37.4019 97.9187 37.4019H167.169C172.989 37.4019 177.725 42.1374 177.725 47.9582V117.208C177.725 123.029 172.989 127.764 167.169 127.764ZM97.9187 39.0909C93.0214 39.0909 89.0513 43.0609 89.0513 47.9582V117.208C89.0513 122.105 93.0214 126.075 97.9187 126.075H146.426C162.779 126.075 176.036 112.819 176.036 96.466V47.9582C176.036 43.0609 172.066 39.0909 167.169 39.0909H97.9187V39.0909Z" fill="#F2F2F2"/>
<path d="M105.385 46.292C102.107 46.292 99.4409 48.9583 99.4409 52.2358V61.5392C99.4409 64.8167 102.107 67.483 105.385 67.483H114.688C117.966 67.483 120.632 64.8167 120.632 61.5392V52.2358C120.632 48.9583 117.966 46.292 114.688 46.292H105.385Z" fill="#F2F2F2"/>
<path d="M105.385 72.4824C102.107 72.4824 99.4409 75.1487 99.4409 78.4263V87.7296C99.4409 91.0072 102.107 93.6735 105.385 93.6735H114.688C117.966 93.6735 120.632 91.0072 120.632 87.7296V78.4263C120.632 75.1487 117.966 72.4824 114.688 72.4824H105.385Z" fill="#F2F2F2"/>
<path d="M105.385 98.6726C102.107 98.6726 99.4409 101.339 99.4409 104.616V113.92C99.4409 117.197 102.107 119.864 105.385 119.864H114.688C117.966 119.864 120.632 117.197 120.632 113.92V104.616C120.632 101.339 117.966 98.6726 114.688 98.6726H105.385Z" fill="#F2F2F2"/>
<path d="M111.554 23.5938C107.424 23.5938 104.064 26.9534 104.064 31.0832V42.8057C104.064 46.9355 107.424 50.2951 111.554 50.2951H123.276C127.406 50.2951 130.766 46.9355 130.766 42.8057V31.0832C130.766 26.9534 127.406 23.5938 123.276 23.5938H111.554Z" fill="#EF3F3A"/>
<path d="M150.148 56.3535C146.018 56.3535 142.658 59.7131 142.658 63.8429V75.5655C142.658 79.6953 146.018 83.0549 150.148 83.0549H161.87C166 83.0549 169.36 79.6953 169.36 75.5655V63.8429C169.36 59.7131 166 56.3535 161.87 56.3535H150.148Z" fill="#EF3F3A"/>
<path d="M133.369 174.346L130.987 174.326L129.933 164.926L133.448 164.955L133.369 174.346Z" fill="#A0616A"/>
<path d="M125.741 178.133C125.736 178.719 126.208 179.201 126.796 179.207L131.531 179.246L132.36 177.566L132.665 179.255L134.451 179.271L134 173.248L133.378 173.206L130.843 173.032L130.025 172.977L130.011 174.681L126.207 177.261C125.918 177.457 125.744 177.783 125.741 178.133H125.741Z" fill="#2F2E41"/>
<path d="M145.485 174.346L143.104 174.326L142.05 164.926L145.565 164.955L145.485 174.346Z" fill="#A0616A"/>
<path d="M137.857 178.133C137.852 178.719 138.325 179.201 138.913 179.207L143.648 179.246L144.477 177.566L144.781 179.255L146.568 179.271L146.117 173.248L145.495 173.206L142.96 173.032L142.142 172.977L142.128 174.681L138.324 177.261C138.035 177.457 137.86 177.783 137.857 178.133Z" fill="#2F2E41"/>
<path d="M124.024 98.3484L133.677 98.6532L142.822 100.685C142.822 100.685 141.908 101.803 144.956 104.852C144.956 104.852 149.02 111.964 146.175 118.874L144.956 146.513C144.956 146.513 148.511 165.996 145.795 172.197L142.205 172.421L136.13 146.738L133.169 119.077L131.746 146.31C131.746 146.31 137.189 165.001 133.752 172.421L129.864 172.197L123.211 146.31C123.211 146.31 120.366 116.435 120.772 110.745C121.179 105.055 124.024 98.3484 124.024 98.3484H124.024Z" fill="#2F2E41"/>
<path d="M156.441 54.6751C155.122 55.0168 154.329 56.3636 154.671 57.6832C154.827 58.2878 155.196 58.7798 155.676 59.1047L155.675 59.1081L155.488 63.6425L158.958 65.2483L159.235 58.2707L159.211 58.2714C159.512 57.7354 159.616 57.0878 159.449 56.4458C159.108 55.1262 157.761 54.3334 156.441 54.6751V54.6751Z" fill="#A0616A"/>
<path d="M137.048 70.858C136.319 70.1355 135.896 69.1559 135.88 68.0906C135.859 66.6616 136.575 65.3646 137.796 64.6211C139.202 63.765 140.96 63.8516 142.274 64.8416L153.171 73.0456L155.112 61.2271L159.281 62.5689L158.286 77.9583C158.216 79.0347 157.608 79.9831 156.658 80.495C155.709 81.0069 154.582 80.9941 153.645 80.4607L137.898 71.5018C137.582 71.3218 137.297 71.1048 137.048 70.858V70.858Z" fill="#3F3D56"/>
<path d="M120.433 48.0645C121.13 49.2363 120.745 50.7508 119.573 51.4474C119.036 51.7666 118.428 51.8561 117.859 51.7495L117.856 51.752L114.797 55.1038L111.202 53.8011L115.918 48.651L115.935 48.6685C116.098 48.0761 116.481 47.543 117.051 47.2041C118.222 46.5076 119.737 46.8928 120.433 48.0645Z" fill="#A0616A"/>
<path d="M121.755 73.0694L104.265 68.3451C103.224 68.0637 102.415 67.2797 102.101 66.2476C101.787 65.2156 102.022 64.1138 102.731 63.3003L112.86 51.6714L116.764 53.6532L109.822 63.4131L123.336 65.2585C124.967 65.4812 126.276 66.6574 126.672 68.2551C127.015 69.6425 126.611 71.0678 125.589 72.0676C124.828 72.813 123.838 73.2109 122.812 73.2108C122.461 73.2108 122.106 73.1643 121.755 73.0694H121.755Z" fill="#3F3D56"/>
<path d="M146.69 102.415L122.232 103.537C121.561 102.516 121.743 100.983 122.683 99.062C126.235 91.81 123.538 78.0907 121.723 70.947C121.214 68.9426 122.581 66.95 124.638 66.7442L126.944 66.5136L129.076 60.0066H136.542L139.639 63.545L144.895 66.738C143.938 76.5928 139.862 90.5085 145.669 97.4872C146.939 99.0135 147.299 100.664 146.69 102.415Z" fill="#3F3D56"/>
<path d="M131.859 60.1568C135.875 60.1568 139.131 56.9012 139.131 52.8852C139.131 48.8692 135.875 45.6135 131.859 45.6135C127.843 45.6135 124.587 48.8692 124.587 52.8852C124.587 56.9012 127.843 60.1568 131.859 60.1568Z" fill="#A0616A"/>
<path d="M140.088 48.2306C141.099 44.542 130.073 41.3789 127.93 44.3494C127.632 43.9271 126.531 43.6705 126.026 43.8001C125.52 43.9296 125.095 44.2535 124.681 44.567C124.111 45.0049 123.52 45.4583 123.17 46.0879C122.818 46.7149 122.764 47.5699 123.238 48.114C123.613 48.5466 124.274 50.8459 124.838 50.9599C125.232 51.0402 125.564 51.105 125.849 51.1516C126.103 50.7811 126.75 50.3157 126.704 49.8675C127.087 50.1214 126.947 50.5681 126.87 51.0247C126.612 52.545 120.812 64.3137 124.134 60.8457C124.463 61.04 124.87 61.2214 125.339 61.3872C126.134 60.1876 126.787 58.773 127.217 57.2936L127.22 57.3209C127.368 58.6066 128.308 59.6615 129.551 60.0216C134.537 61.4662 138.571 59.3465 139.958 55.5239C139.451 54.4927 139.229 54.6047 139.275 54.574C139.909 54.1467 140.78 54.4262 141.053 55.1406C141.133 55.3512 141.206 55.5311 141.269 55.6664C141.992 53.0806 142.852 53.4538 140.088 48.2306H140.088Z" fill="#2F2E41"/>
<path d="M136.647 45.5544L136.138 42.9504C136.095 42.7315 136.055 42.494 136.153 42.294C136.28 42.037 136.606 41.9305 136.89 41.9714C137.173 42.0124 137.386 42.2715 137.668 42.3214C138.649 42.4948 139.946 41.5257 140.298 43.9774C140.444 44.9996 142.075 45.1076 142.62 45.9849C143.165 46.8622 143.232 48.1286 142.488 48.8453C141.894 49.4177 140.941 49.4838 140.17 49.1914C139.399 48.899 138.78 48.3083 138.239 47.6855C137.698 47.0626 137.209 46.3886 136.585 45.8489" fill="#2F2E41"/>
<path d="M140.476 49.5152C138.486 49.2372 137.13 48.5135 136.445 47.3645C135.548 45.8603 136.149 44.2041 136.175 44.1343L136.596 44.2906C136.59 44.3059 136.045 45.822 136.833 47.1386C137.446 48.1627 138.692 48.8129 140.538 49.0708L140.476 49.5152Z" fill="#EF3F3A"/>
<path d="M149.814 21.3786C143.964 21.3786 139.205 16.6189 139.205 10.7694C139.205 4.91979 143.964 0.160156 149.814 0.160156C155.663 0.160156 160.423 4.91979 160.423 10.7694C160.423 16.6189 155.663 21.3786 149.814 21.3786ZM149.814 4.40384C146.304 4.40384 143.448 7.25921 143.448 10.7694C143.448 14.2795 146.304 17.1349 149.814 17.1349C153.324 17.1349 156.179 14.2795 156.179 10.7694C156.179 7.25921 153.324 4.40384 149.814 4.40384Z" fill="#EF3F3A"/>
<path d="M166.137 28.5884C165.616 28.5884 165.095 28.3988 164.686 28.0144L154.729 18.6827C153.873 17.8818 153.829 16.5391 154.631 15.6843C155.431 14.8265 156.774 14.784 157.63 15.5869L167.587 24.9187C168.443 25.7195 168.486 27.0623 167.684 27.917C167.267 28.3636 166.702 28.5884 166.137 28.5884Z" fill="#EF3F3A"/>
<path d="M211.14 174.108C211.861 174.153 212.26 173.256 211.714 172.734L211.66 172.518C211.667 172.501 211.674 172.484 211.681 172.466C212.411 170.727 214.884 170.739 215.607 172.481C216.249 174.027 217.066 175.576 217.268 177.211C217.358 177.933 217.317 178.668 217.157 179.376C218.662 176.09 219.453 172.502 219.453 168.893C219.453 167.986 219.404 167.08 219.302 166.175C219.219 165.435 219.104 164.7 218.955 163.972C218.15 160.034 216.406 156.283 213.891 153.15C212.682 152.489 211.674 151.456 211.065 150.218C210.846 149.771 210.675 149.291 210.594 148.801C210.731 148.819 211.113 146.724 211.009 146.596C211.2 146.305 211.544 146.16 211.753 145.876C212.794 144.464 214.229 144.711 214.978 146.629C216.578 147.437 216.594 148.776 215.612 150.064C214.988 150.884 214.902 151.993 214.354 152.87C214.41 152.942 214.469 153.012 214.525 153.085C215.559 154.411 216.453 155.836 217.207 157.334C216.994 155.669 217.309 153.664 217.845 152.372C218.456 150.899 219.6 149.659 220.607 148.386C221.818 146.856 224.3 147.524 224.513 149.462C224.515 149.481 224.517 149.5 224.519 149.519C224.369 149.603 224.223 149.693 224.079 149.788C223.262 150.328 223.545 151.594 224.513 151.744L224.535 151.747C224.481 152.286 224.388 152.821 224.253 153.346C225.545 158.345 222.755 160.166 218.77 160.248C218.682 160.293 218.596 160.338 218.508 160.381C218.912 161.518 219.234 162.684 219.473 163.866C219.688 164.91 219.837 165.965 219.92 167.026C220.024 168.363 220.015 169.707 219.902 171.042L219.909 170.995C220.195 169.525 220.994 168.151 222.153 167.199C223.88 165.781 226.32 165.258 228.183 164.118C229.08 163.569 230.229 164.278 230.073 165.318L230.065 165.368C229.788 165.481 229.517 165.611 229.255 165.758C229.106 165.842 228.959 165.932 228.816 166.027C227.999 166.567 228.281 167.834 229.249 167.983L229.271 167.986C229.287 167.989 229.301 167.991 229.316 167.993C228.84 169.123 228.177 170.172 227.347 171.076C226.539 175.44 223.067 175.854 219.354 174.584H219.352C218.946 176.352 218.353 178.08 217.59 179.726H211.297C211.275 179.656 211.255 179.584 211.234 179.514C211.816 179.55 212.403 179.516 212.976 179.41C212.509 178.837 212.042 178.26 211.575 177.687C211.564 177.676 211.555 177.665 211.546 177.653C211.309 177.36 211.07 177.069 210.833 176.776L210.833 176.776C210.818 175.875 210.926 174.978 211.14 174.108L211.14 174.108Z" fill="#F2F2F2"/>
<path d="M37.0439 179.745C37.0439 179.975 37.229 180.16 37.4595 180.16H229.623C229.853 180.16 230.038 179.975 230.038 179.745C230.038 179.514 229.853 179.329 229.623 179.329H37.4595C37.229 179.329 37.0439 179.514 37.0439 179.745Z" fill="#CCCCCC"/>
</g>
</g>
<defs>
<clipPath id="clip0_1622_5250">
<rect width="268" height="180" fill="white" transform="translate(0.0439453 0.160156)"/>
</clipPath>
<clipPath id="clip1_1622_5250">
<rect width="193.043" height="180" fill="white" transform="translate(37.0439 0.160156)"/>
</clipPath>
</defs>
</svg>
