<svg width="165" height="107" viewBox="0 0 165 107" fill="none" xmlns="http://www.w3.org/2000/svg">
<g style="mix-blend-mode:multiply" opacity="0.5">
<rect x="3.29032" y="29.412" width="146.831" height="75.2456" transform="rotate(-10 3.29032 29.412)" stroke="#858585" stroke-width="5.54733"/>
<path d="M33.0124 74.5591L27.7444 44.6831L33.7623 43.622L37.9767 67.5228L48.0065 65.7543L49.0601 71.7295L33.0124 74.5591ZM49.6136 63.1385L45.7981 41.4997L51.816 40.4386L55.6315 62.0774C55.8657 63.239 56.6556 63.8918 58.0012 64.036C58.2104 64.0577 58.3577 64.0611 58.443 64.0461L59.5117 70.1066C57.8614 70.3976 56.1082 70.1053 54.2522 69.2297C51.68 67.9523 50.1338 65.9219 49.6136 63.1385ZM61.8164 69.7003L60.7478 63.6397C61.2599 63.5494 61.7579 63.2122 62.2417 62.6281C62.6451 62.0876 62.8034 61.4876 62.7164 60.8282L58.9009 39.1894L64.8761 38.1358L68.6916 59.7746C69.2586 62.9898 68.2598 65.645 65.6955 67.7401C64.4183 68.8161 63.1253 69.4695 61.8164 69.7003ZM73.3451 67.4474L69.6425 46.4488L69.9839 46.3886L77.2708 54.5212L79.363 66.3863L73.3451 67.4474ZM68.7695 41.4979L68.0771 37.5713L72.9853 36.7059L91.0734 56.9282L92.3377 64.0985L89.4782 64.6027L68.7695 41.4979ZM82.5721 43.9049L81.0519 35.2835L87.0698 34.2224L90.2004 51.9773L89.859 52.0375L82.5721 43.9049ZM95.4961 63.5416L96.6219 37.731L97.2621 37.6181L101.93 49.117L101.386 62.503L95.4961 63.5416ZM103.947 58.3108L104.189 52.1952L105.726 51.9243L97.6118 32.3636L103.544 31.3175L115.854 59.9519L109.879 61.0054L108.386 57.5281L103.947 58.3108ZM116.33 52.9149L121.412 50.0385C121.537 50.7499 121.847 51.3407 122.34 51.8111C122.834 52.2815 123.295 52.5669 123.723 52.6674L124.374 52.8608L125.352 58.4092C122.933 58.8357 120.685 58.1466 118.606 56.3421C117.318 55.1904 116.559 54.048 116.33 52.9149ZM114.037 37.9167C113.486 34.7868 114.409 32.2036 116.808 30.167C117.901 29.2115 118.985 28.6242 120.061 28.4051L121.055 34.0389C120.379 34.3635 119.943 34.9684 119.747 35.8538C119.678 36.1299 119.669 36.4103 119.719 36.6948C119.925 37.8614 120.968 38.7043 122.849 39.2234C123.249 39.3289 123.892 39.4796 124.777 39.6755C126.238 39.9753 127.283 40.2458 127.913 40.4869C130.458 41.4462 132.241 42.5695 133.26 43.8567C134.024 44.8661 134.527 46.0536 134.768 47.4194C135.225 50.0087 134.634 52.4011 132.997 54.5968C131.599 56.4862 129.833 57.619 127.699 57.9953L126.721 52.4469C127.806 52.1089 128.485 51.3877 128.76 50.2831C128.879 49.7927 128.891 49.2772 128.795 48.7366C128.539 47.2855 127.247 46.2811 124.919 45.7234C124.491 45.6229 123.822 45.4915 122.914 45.329C121.858 45.1631 121.113 45.0158 120.679 44.8868C118.027 44.1517 116.196 42.9196 115.187 41.1906C114.641 40.2599 114.258 39.1686 114.037 37.9167ZM123.402 33.625L122.409 27.9912C124.799 27.5697 126.983 28.2261 128.961 29.9604C130.111 30.9898 130.785 31.9858 130.984 32.9482L125.759 35.7617C125.549 34.5667 124.822 33.8586 123.581 33.6375C123.462 33.6291 123.402 33.625 123.402 33.625Z" fill="#858585"/>
</g>
</svg>
